<?xml version="1.0" encoding="utf-8"?>
<!-- Generated by IcoMoon.io -->
<!DOCTYPE svg PUBLIC "-//W3C//DTD SVG 1.1//EN" "http://www.w3.org/Graphics/SVG/1.1/DTD/svg11.dtd">
<svg version="1.1" xmlns="http://www.w3.org/2000/svg" xmlns:xlink="http://www.w3.org/1999/xlink" width="32" height="32" viewBox="0 0 32 32">
<g id="icomoon-ignore">
	<line stroke-width="1" x1="" y1="" x2="" y2="" stroke="#449FDB" opacity=""></line>
</g>
	<path d="M4 1.333v4h-4v25.333h28v-4h4v-25.333h-28zM25.333 28h-22.667v-20h1.333v18.667h21.333v1.333zM29.333 24h-22.667v-13.333h22.667v13.333zM29.333 9.333h-22.667v-5.333h22.667v5.333zM18.667 5.333h-2.667v2.667h2.667v-2.667zM14.667 5.333h-2.667v2.667h2.667v-2.667zM10.667 5.333h-2.667v2.667h2.667v-2.667z" fill="#2c3d51"></path>
</svg>
