<?xml version="1.0" encoding="UTF-8"?>
<!DOCTYPE svg PUBLIC "-//W3C//DTD SVG 1.0//EN" "http://www.w3.org/TR/2001/REC-SVG-20010904/DTD/svg10.dtd">
<!-- Creator: CorelDRAW X6 -->
<svg xmlns="http://www.w3.org/2000/svg" xml:space="preserve" width="109px" height="118px" version="1.0" shape-rendering="geometricPrecision" text-rendering="geometricPrecision" image-rendering="optimizeQuality" fill-rule="evenodd" clip-rule="evenodd"
viewBox="0 0 6179 6669"
 xmlns:xlink="http://www.w3.org/1999/xlink">
 <g id="Слой_x0020_1">
  <metadata id="CorelCorpID_0Corel-Layer"/>
  <path fill="white" d="M4890 5392l508 0 0 495 -508 0 0 -495zm-421 -5392l73 0c118,18 220,119 354,216l536 389c146,110 284,202 430,313 184,139 318,176 318,411l0 5080c0,137 -108,261 -247,261l-5679 0c-114,0 -213,-86 -235,-195 -31,-150 -12,-4605 -12,-5158 0,-129 46,-196 123,-255 326,-252 734,-525 1070,-779l219 -159c141,-97 120,-122 307,-122 89,0 506,329 610,406l757 545 1202 -869c65,-49 122,-74 174,-82zm-855 5392l495 0 0 495 -495 0 0 -495zm-1537 0l495 0 0 495 -495 0 0 -495zm-1289 0l508 0 0 495 -508 0 0 -495zm4103 -1276l508 0 0 495 -508 0 0 -495zm-1276 0l495 0 0 495 -495 0 0 -495zm-1537 0l495 0 0 495 -495 0 0 -495zm-1289 0l508 0 0 495 -508 0 0 -495zm4103 -1289l508 0 0 508 -508 0 0 -508zm-1276 0l495 0 0 508 -495 0 0 -508zm-1537 0l495 0 0 508 -495 0 0 -508zm-1289 0l508 0 0 508 -508 0 0 -508zm4103 -1276l508 0 0 495 -508 0 0 -495zm-1276 0l495 0 0 495 -495 0 0 -495zm-1537 0l495 0 0 495 -495 0 0 -495zm-1289 0l508 0 0 495 -508 0 0 -495z"/>
 </g>
</svg>
