<?xml version="1.0" encoding="UTF-8"?>
<!DOCTYPE svg PUBLIC "-//W3C//DTD SVG 1.0//EN" "http://www.w3.org/TR/2001/REC-SVG-20010904/DTD/svg10.dtd">
<!-- Creator: CorelDRAW X6 -->
<svg xmlns="http://www.w3.org/2000/svg" xml:space="preserve" width="96px" height="118px" version="1.0" shape-rendering="geometricPrecision" text-rendering="geometricPrecision" image-rendering="optimizeQuality" fill-rule="evenodd" clip-rule="evenodd"
viewBox="0 0 4825 5913"
 xmlns:xlink="http://www.w3.org/1999/xlink">
 <g id="Слой_x0020_1">
  <metadata id="CorelCorpID_0Corel-Layer"/>
  <path fill="white" d="M1814 1002c-12,986 -5,561 2149,480 -126,666 -29,980 -383,1665 -171,331 -634,1024 -1045,899 -954,-289 -1651,-1675 -1505,-2638l533 112 251 -518zm606 2338c269,-146 222,-110 525,-64 -196,158 -266,171 -525,64zm-146 4c265,480 580,370 785,-78 -241,-306 -615,-265 -785,78zm-460 -2341l17 -105 56 88 -74 17zm168 4912c784,-289 2193,-1921 2571,-2734 706,-1519 5,-3036 -1717,-3169 -1456,-113 -3248,689 -2751,2417 409,1424 1688,2157 1898,3486z"/>
 </g>
</svg>
