<?xml version="1.0" encoding="UTF-8"?>
<!DOCTYPE svg PUBLIC "-//W3C//DTD SVG 1.0//EN" "http://www.w3.org/TR/2001/REC-SVG-20010904/DTD/svg10.dtd">
<!-- Creator: CorelDRAW X6 -->
<svg xmlns="http://www.w3.org/2000/svg" xml:space="preserve" width="118px" height="118px" version="1.0" shape-rendering="geometricPrecision" text-rendering="geometricPrecision" image-rendering="optimizeQuality" fill-rule="evenodd" clip-rule="evenodd"
viewBox="0 0 7187 7187"
 xmlns:xlink="http://www.w3.org/1999/xlink">
 <g id="Слой_x0020_1">
  <metadata id="CorelCorpID_0Corel-Layer"/>
  <path fill="white" d="M1539 4871l0 -71c0,-402 375,-777 777,-777 344,0 610,149 763,452 257,511 -77,1172 -763,1172 -402,0 -777,-375 -777,-777zm3925 -2485c-200,0 -348,-43 -484,-179 -239,-239 -247,-621 14,-883 55,-55 104,-84 176,-121 58,-30 174,-58 251,-58 149,0 324,79 428,178 437,420 59,1063 -385,1063zm-946 -2217l113 551c-76,20 -229,195 -268,254l-522 -127c-56,106 -129,323 -184,438 45,24 452,276 452,297 0,177 -27,58 -2,270 4,37 2,74 2,111 -45,12 -67,36 -108,61l-343 207c25,105 157,385 169,438 78,-7 422,-103 537,-113 70,105 163,198 268,268l-127 537c76,6 336,146 438,169 12,-43 108,-184 138,-229 51,-76 95,-149 144,-223l395 0c13,57 230,379 268,452 74,-6 344,-148 438,-169 -4,-46 -18,-85 -28,-127 -22,-89 -72,-354 -99,-410 81,-43 226,-188 268,-268 61,29 472,96 537,127 32,-61 63,-147 93,-218 31,-74 59,-153 91,-220 -52,-14 -397,-246 -466,-282l14 -254c0,-71 -13,-63 -14,-127l342 -209c43,-27 74,-60 124,-73 -10,-43 -26,-65 -40,-101l-129 -337 -537 127c-70,-105 -163,-198 -268,-268 8,-92 111,-438 113,-537 -65,-35 -373,-168 -438,-169l-268 452c-64,-1 -56,-14 -127,-14 -123,0 -151,-10 -254,14 -41,-77 -96,-153 -141,-227 -49,-81 -97,-155 -142,-239l-438 169zm-2584 2993l-363 132c-83,43 -73,87 -198,-8l-238 -171c-55,-38 -195,-150 -246,-164l-427 420c71,101 399,552 399,582l-103 222c-35,88 -58,147 -81,244 -169,0 -507,99 -678,99l0 621c97,0 554,110 678,113l132 363c62,120 94,63 -91,313 -31,42 -57,79 -88,124 -38,55 -150,195 -164,246l420 427c831,-572 384,-404 962,-242 118,33 75,-9 144,406 18,110 26,298 83,298l579 0c2,-86 35,-209 50,-303 19,-113 32,-200 53,-314 20,-111 26,-52 229,-138 100,-42 160,-75 246,-121l291 204c52,38 89,61 141,99 51,37 99,75 147,107l427 -420c-16,-51 -66,-106 -97,-150l-316 -432c62,-116 171,-310 184,-466l352 -58c83,-17 268,-55 354,-55l0 -607 -706 -113c-3,-155 -165,-422 -170,-437 -11,-31 -12,-23 11,-60l386 -548 -420 -427c-51,16 -462,322 -551,388l-31 25c-92,-62 -270,-141 -382,-169 -72,-18 -79,-9 -93,-90l-104 -630 -607 0 -113 692z"/>
 </g>
</svg>
