<?xml version="1.0" encoding="UTF-8"?>
<!DOCTYPE svg PUBLIC "-//W3C//DTD SVG 1.0//EN" "http://www.w3.org/TR/2001/REC-SVG-20010904/DTD/svg10.dtd">
<!-- Creator: CorelDRAW X6 -->
<svg xmlns="http://www.w3.org/2000/svg" xml:space="preserve" width="118px" height="118px" version="1.0" shape-rendering="geometricPrecision" text-rendering="geometricPrecision" image-rendering="optimizeQuality" fill-rule="evenodd" clip-rule="evenodd"
viewBox="0 0 7187 7176"
 xmlns:xlink="http://www.w3.org/1999/xlink">
 <g id="Слой_x0020_1">
  <metadata id="CorelCorpID_0Corel-Layer"/>
  <path fill="white" d="M1123 562l1123 0c-12,546 -281,58 -281,618 0,243 106,21 302,428 113,234 246,570 343,907 41,-113 106,-211 194,-312 38,-43 149,-116 263,-181 -63,-182 -137,-363 -225,-543 -276,-563 -36,-21 -36,-917 0,-366 -222,-510 -543,-562l-1253 0c-171,0 -449,258 -449,562 0,1154 254,-73 -260,1481 -152,459 -302,852 -302,1439l0 352c0,-286 240,-409 618,-443l0 -77c0,-481 157,-832 273,-1187 86,-263 196,-548 362,-761 441,-562 -117,-316 -130,-804zm3216 1127c236,-113 903,81 1132,219 77,46 318,178 148,269 -265,141 -1210,-275 -1459,-275 -186,0 -60,43 -403,111 -124,24 -249,58 -349,109 -211,107 -331,329 -331,573 179,-95 169,-78 391,-78 133,0 271,34 384,62 130,32 220,68 338,109l228 107c25,15 46,22 73,39 50,30 86,59 129,94 64,51 144,164 21,226 -193,98 -711,-80 -914,-137 -120,-34 -250,-77 -373,-107 -204,-50 -254,-80 -478,-80 -76,0 -479,222 -558,313 -48,55 -91,145 -125,257 397,51 808,107 1199,141 783,68 1143,-255 1830,-255 346,0 653,-26 961,-1 26,-29 51,-56 78,-85 178,-222 299,-356 474,-598 183,-254 673,-962 337,-1321 -484,-517 -1186,-409 -1787,-173 -42,16 -76,35 -124,44 -149,27 -328,-36 -527,98 -95,64 -269,229 -295,342zm-3777 4757c19,-231 42,-205 241,-264 845,-248 1953,177 2790,177 869,0 1869,-414 2745,-188 240,62 265,16 287,275 -609,-14 -310,-254 -1845,8 -1164,199 -1089,209 -2279,16 -1748,-283 -1201,-41 -1941,-25zm4660 -2527c563,0 1024,-68 1558,126 235,86 407,129 407,435l0 2271c-16,286 -57,399 -150,424l-100 0c-161,-28 -417,-157 -826,-218 -817,-122 -1523,218 -2349,218 -1086,0 -1124,-137 -1971,-220 -1303,-128 -1012,337 -1735,164 -27,-115 -45,-278 -56,-470l0 -2250 0 -31c0,-798 1857,-327 3392,-194 783,68 1143,-255 1830,-255zm-4660 1460c6,-278 8,-248 252,-310 929,-236 1795,148 2729,196 811,42 1768,-444 2785,-206 256,60 292,17 298,319 -820,-393 -2005,112 -3088,112 -930,0 -2154,-507 -2976,-112zm0 -561c6,-263 32,-244 263,-298 777,-181 778,-64 1589,74 2302,393 2559,-364 3901,-83 258,54 304,22 311,307 -1499,-349 -1649,112 -3088,112 -1294,0 -1480,-461 -2976,-112z"/>
 </g>
</svg>
