<?xml version="1.0" encoding="UTF-8"?>
<!DOCTYPE svg PUBLIC "-//W3C//DTD SVG 1.0//EN" "http://www.w3.org/TR/2001/REC-SVG-20010904/DTD/svg10.dtd">
<!-- Creator: CorelDRAW X6 -->
<svg xmlns="http://www.w3.org/2000/svg" xml:space="preserve" width="118px" height="109px" version="1.0" shape-rendering="geometricPrecision" text-rendering="geometricPrecision" image-rendering="optimizeQuality" fill-rule="evenodd" clip-rule="evenodd"
viewBox="0 0 7187 6640"
 xmlns:xlink="http://www.w3.org/1999/xlink">
 <g id="Слой_x0020_1">
  <metadata id="CorelCorpID_0Corel-Layer"/>
  <path fill="white" d="M842 3257c0,-136 58,-284 125,-352 79,-80 194,-139 352,-139l884 0 0 547 -1362 0 0 -56zm2260 -225l-70 0 0 295 393 -14c297,-16 579,-68 854,-170 49,-18 99,-57 142,-68l-1 -436c1,-73 13,-79 15,-140 -32,12 -11,3 -33,23 -170,155 -219,246 -508,362 -213,85 -501,148 -792,148zm-1460 3608l590 0c399,0 467,-378 287,-652 -238,-361 -490,-260 -383,-1017 15,-104 46,-189 68,-283l-1348 0 145 528c57,195 292,1171 363,1265 57,75 168,158 277,158zm5545 -3585l0 430c-4,191 -14,384 -28,586 -46,677 -234,1544 -582,2113 -326,533 -803,620 -1173,132 -138,-182 -181,-282 -349,-493 -105,-131 -265,-324 -384,-444 -339,-339 -713,-597 -1184,-753 -1123,-371 -2267,-97 -2843,-217 -341,-72 -644,-409 -644,-732l0 -702c0,-157 76,-322 144,-417 182,-255 420,-355 754,-355 551,1 1096,9 1642,-14 288,-12 682,-115 905,-204 470,-189 617,-318 946,-584l153 -128c152,-140 271,-295 400,-428 161,-166 372,-460 575,-660 172,-170 290,-186 488,-186 207,0 430,241 539,401 301,441 481,1154 560,1700 48,332 72,643 80,954zm-1249 -2480c145,77 268,360 325,503 427,1060 462,2713 197,3837 -84,356 -279,985 -522,1148 -336,-292 -530,-1142 -600,-1618 -14,-95 -32,-193 -32,-291 293,0 550,10 790,-221 270,-260 341,-656 188,-982 -70,-150 -237,-320 -394,-392 -211,-95 -357,-76 -584,-76 0,-417 296,-1684 632,-1909zm-1165 4127c-125,-84 -214,-182 -411,-290 -182,-100 -241,-148 -465,-237 -93,-37 -157,-63 -255,-96 -166,-55 -385,-115 -559,-143 -111,-18 -218,-25 -317,-48l0 -1151c276,-23 615,-129 876,-219l494 -236c82,-49 146,-88 225,-140 181,-120 314,-242 427,-317 -52,224 -99,1202 -98,1432 0,61 -1,122 0,183 0,84 14,102 15,181 3,242 21,874 70,1081z"/>
 </g>
</svg>
